MATH 3190 Homework 1 – Homework Portfolio
…
cbbga = read.fwf('http://kenpom.com/cbbga26.txt', widths = c(10, 24, 4, 23, 5, 10), strip.white=TRUE)
as.tibble(cbbga)

Warning: `as.tibble()` was deprecated in tibble 2.0.0.
ℹ Please use `as_tibble()` instead.
ℹ The signature and semantics have changed, see `?as_tibble`.

# A tibble: 6,300 × 6
   V1         V2                 V3 V4                V5    V6       
   <chr>      <chr>           <int> <chr>             <chr> <chr>    
 1 11/03/2025 McMurry            55 Abilene Christian 92    ""       
 2 11/03/2025 James Madison      71 Akron             85    ""       
 3 11/03/2025 North Dakota       62 Alabama           91    ""       
 4 11/03/2025 Blue Mountain      60 Alabama A&M       80    ""       
 5 11/03/2025 Florida            87 Arizona           93 N  "Las Veg"
 6 11/03/2025 Southern           77 Arkansas          109   ""       
 7 11/03/2025 SUNY Maritime      49 Army              73    ""       
 8 11/03/2025 Bethune Cookman    90 Auburn            95 1  ""       
 9 11/03/2025 Bryan              47 Austin Peay       128   ""       
10 11/03/2025 Louisiana          64 Ball St.          75    ""       
# ℹ 6,290 more rows
…
